sn,name,gender,phone,email,address,nationality,dateOfBirth,education,prefered_contact
1,ambha,M,521463,shakyaavineh@gmail.com,patan,nepali,2056/56/85,slc,phone
2,"Avinesh shakya",M,323443,admin@gmail.com,asdfsadfsdaf,nepali,2056/56/85,slc,email
3,"Raghu Chaudhari",M,9843288091,admin@gmail.com,"Trishakti Marg- Kathmandu 44600- Nepal",nepali,2056/56/85,slc,none
4,"Manish Manandhar",M,323443,ambha@gmail.com,"Mitra Marg- Patan 44600- Nepal",nepali,2056/56/85,slc,phone
5,ambha,M,521463,shakyaavineh@gmail.com,patan,nepali,2056/56/85,slc,email
6,Rebika,F,9843288091,shakyaavineh@gmail.com,"Mitra Marg- Patan 44600- Nepal",nepali,2056/56/85,slc,phone
7,ambha,F,521463,shakyaavineh@gmail.com,Trishakti Marg- Kathmandu 44600- Nepal,nepali,2056/56/85,slc,email
8,"Avinesh shakya",M,323443,shakyaavineh@gmail.com,asdfsadfsdaf,nepali,2056/56/85,slc,phone
9,"Kus Sha",F,323443,shakyaavineh@gmail.com,"Mitra Marg- Patan 44600- Nepal",nepali,2056/56/85,slc,email
